R Camp | day 1
…
Drop a single column with a minus sign

library("dplyr")

# Drop the destination column
select(starwars_scrap, -Dest)

## # A tibble: 222 x 5
##    Salvage                          Origin     Amount Units Price_per_Ton
##    <chr>                            <chr>       <int> <chr>         <dbl>
##  1 Flight recorder                  Outskirts     887 Tons           591.
##  2 Proximity sensor                 Outskirts    7081 Tons          1229.
##  3 Vitus-Series Attitude Thrusters  Reestki      4901 Tons           226.
##  4 Aural sensor                     Tuanul        707 Tons           145.
##  5 Electromagnetic discharge filter Tuanul        107 Tons           188.
##  6 Proximity sensor                 Tuanul      32109 Tons          1229.
##  7 Hyperdrive motivator             Tuanul        862 Tons          1485.
##  8 Landing jet                      Reestki     13944 Tons          1497.
##  9 Electromagnetic discharge filter Cratertown   7788 Tons           188.
## 10 Sublight engine                  Outskirts   10642 Tons          7211.
## # ... with 212 more rows

Drop multiple columns with -c(col_1, col_2) or -col1, -col2

# Drop the destination and units columns
select(starwars_scrap, -c(Dest, Units))

## # A tibble: 222 x 4
##    Salvage                          Origin     Amount Price_per_Ton
##    <chr>                            <chr>       <int>         <dbl>
##  1 Flight recorder                  Outskirts     887          591.
##  2 Proximity sensor                 Outskirts    7081         1229.
##  3 Vitus-Series Attitude Thrusters  Reestki      4901          226.
##  4 Aural sensor                     Tuanul        707          145.
##  5 Electromagnetic discharge filter Tuanul        107          188.
##  6 Proximity sensor                 Tuanul      32109         1229.
##  7 Hyperdrive motivator             Tuanul        862         1485.
##  8 Landing jet                      Reestki     13944         1497.
##  9 Electromagnetic discharge filter Cratertown   7788          188.
## 10 Sublight engine                  Outskirts   10642         7211.
## # ... with 212 more rows

Keep only three columns

# Keep the Salvage, Amount and Price_per_Ton columns
select(starwars_scrap, c(Salvage, Amount, Price_per_Ton))

## # A tibble: 222 x 3
##    Salvage                          Amount Price_per_Ton
##    <chr>                             <int>         <dbl>
##  1 Flight recorder                     887          591.
##  2 Proximity sensor                   7081         1229.
##  3 Vitus-Series Attitude Thrusters    4901          226.
##  4 Aural sensor                        707          145.
##  5 Electromagnetic discharge filter    107          188.
##  6 Proximity sensor                  32109         1229.
##  7 Hyperdrive motivator                862         1485.
##  8 Landing jet                       13944         1497.
##  9 Electromagnetic discharge filter   7788          188.
## 10 Sublight engine                   10642         7211.
## # ... with 212 more rows

everything()

select() also works to change the order of columns. The code below moves the Units and Amount columns directly after Salvage, and then keeps evertyhing() else the same.

# Make the `Salvage`, `Units`, and `Amount` columns the first three columns
# Leave `everything()` else in the same order
select(starwars_scrap, c(Salvage, Units, Amount), everything())

## # A tibble: 222 x 6
##    Salvage                  Units Amount Origin   Dest       Price_per_Ton
##    <chr>                    <chr>  <int> <chr>    <chr>              <dbl>
##  1 Flight recorder          Tons     887 Outskir~ Niima Out~          591.
##  2 Proximity sensor         Tons    7081 Outskir~ Raiders            1229.
##  3 Vitus-Series Attitude T~ Tons    4901 Reestki  Raiders             226.
##  4 Aural sensor             Tons     707 Tuanul   Raiders             145.
##  5 Electromagnetic dischar~ Tons     107 Tuanul   Niima Out~          188.
##  6 Proximity sensor         Tons   32109 Tuanul   Trade car~         1229.
##  7 Hyperdrive motivator     Tons     862 Tuanul   Trade car~         1485.
##  8 Landing jet              Tons   13944 Reestki  Niima Out~         1497.
##  9 Electromagnetic dischar~ Tons    7788 Cratert~ Raiders             188.
## 10 Sublight engine          Tons   10642 Outskir~ Niima Out~         7211.
## # ... with 212 more rows
…
