R Training | Day 1
…
library("readr")

read_csv("data/starwars_scrap_jakku.csv")

## Parsed with column specification:
## cols(
##   Salvage = col_character(),
##   Origin = col_character(),
##   Dest = col_character(),
##   Amount = col_integer(),
##   Units = col_character(),
##   Price_per_Ton = col_double()
## )

## # A tibble: 222 x 6
##    Salvage                  Origin   Dest       Amount Units Price_per_Ton
##    <chr>                    <chr>    <chr>       <int> <chr>         <dbl>
##  1 Flight recorder          Outskir~ Niima Out~    887 Tons           591.
##  2 Proximity sensor         Outskir~ Raiders      7081 Tons          1229.
##  3 Vitus-Series Attitude T~ Reestki  Raiders      4901 Tons           226.
##  4 Aural sensor             Tuanul   Raiders       707 Tons           145.
##  5 Electromagnetic dischar~ Tuanul   Niima Out~    107 Tons           188.
##  6 Proximity sensor         Tuanul   Trade car~  32109 Tons          1229.
##  7 Hyperdrive motivator     Tuanul   Trade car~    862 Tons          1485.
##  8 Landing jet              Reestki  Niima Out~  13944 Tons          1497.
##  9 Electromagnetic dischar~ Cratert~ Raiders      7788 Tons           188.
## 10 Sublight engine          Outskir~ Niima Out~  10642 Tons          7211.
## # ... with 212 more rows
…
## Parsed with column specification:
## cols(
##   Salvage = col_character(),
##   Origin = col_character(),
##   Dest = col_character(),
##   Amount = col_integer(),
##   Units = col_character(),
##   Price_per_Ton = col_double()
## )

# Type the name of the table to view it in the console
scrap

## # A tibble: 222 x 6
##    Salvage                  Origin   Dest       Amount Units Price_per_Ton
##    <chr>                    <chr>    <chr>       <int> <chr>         <dbl>
##  1 Flight recorder          Outskir~ Niima Out~    887 Tons           591.
##  2 Proximity sensor         Outskir~ Raiders      7081 Tons          1229.
##  3 Vitus-Series Attitude T~ Reestki  Raiders      4901 Tons           226.
##  4 Aural sensor             Tuanul   Raiders       707 Tons           145.
##  5 Electromagnetic dischar~ Tuanul   Niima Out~    107 Tons           188.
##  6 Proximity sensor         Tuanul   Trade car~  32109 Tons          1229.
##  7 Hyperdrive motivator     Tuanul   Trade car~    862 Tons          1485.
##  8 Landing jet              Reestki  Niima Out~  13944 Tons          1497.
##  9 Electromagnetic dischar~ Cratert~ Raiders      7788 Tons           188.
## 10 Sublight engine          Outskir~ Niima Out~  10642 Tons          7211.
## # ... with 212 more rows
…
